<svg xmlns="http://www.w3.org/2000/svg" viewBox="6617 1514 16 16">
  <defs>
    <style>
      .cls-1 {
        fill: #fff;
      }
    </style>
  </defs>
  <g id="Group_238" data-name="Group 238" transform="translate(5083 144)">
    <rect id="Rectangle_274" data-name="Rectangle 274" class="cls-1" width="7.024" height="7.024" transform="translate(1534 1370)"/>
    <rect id="Rectangle_275" data-name="Rectangle 275" class="cls-1" width="7.024" height="3.024" transform="translate(1542.976 1372)"/>
    <rect id="Rectangle_276" data-name="Rectangle 276" class="cls-1" width="7.024" height="3.024" transform="translate(1542.976 1380.976)"/>
    <rect id="Rectangle_277" data-name="Rectangle 277" class="cls-1" width="7.024" height="7.024" transform="translate(1534 1378.976)"/>
  </g>
</svg>
