attribute_code,attribute_set,type,input,option,label,required,default,unique,searchable,filterable,comparable,visible_on_front,visible_in_advanced_search,filterable_in_search,used_in_product_listing,used_for_sort_by,apply_to,position,used_for_promo_rules,is_used_in_grid,is_visible_in_grid,is_filterable_in_grid
test_code_1,test_set,text,text,,TEST TEXT,1,1,,1,0,1,1,1,1,1,,,,,1,1,1
test_code_2,test_set,text,select,"{ ""value"": { ""option1"": [""1""], ""option2"": [""2""] }, ""order"": { ""option1"": ""1"", ""option2"": ""2"" } }",TEST SELECT,0,1,,1,0,1,1,1,1,1,,,,,1,1,1
